<?xml version="1.0" encoding="UTF-8"?>
<svg width="5px" height="24px" viewBox="0 0 5 24" version="1.1" xmlns="http://www.w3.org/2000/svg" xmlns:xlink="http://www.w3.org/1999/xlink">
    <!-- Generator: Sketch 48.2 (47327) - http://www.bohemiancoding.com/sketch -->
    <title>Line 2</title>
    <desc>Created with Sketch.</desc>
    <defs></defs>
    <g id="Page-1" stroke="none" stroke-width="1" fill="none" fill-rule="evenodd" stroke-linecap="square">
        <path d="M4.5,0.5 L4.5,23.5" id="Line-2" stroke="#4C5A62"></path>
        <path d="M0.5,0.5 L0.5,23.5" id="Line-2" stroke="#4C5A62"></path>
    </g>
</svg>