<?xml version="1.0" encoding="UTF-8"?>
<svg width="1762px" height="512px" viewBox="0 0 1762 512" version="1.1" xmlns="http://www.w3.org/2000/svg" xmlns:xlink="http://www.w3.org/1999/xlink">
    <!-- Generator: Sketch 46.2 (44496) - http://www.bohemiancoding.com/sketch -->
    <title>Oval</title>
    <desc>Created with Sketch.</desc>
    <defs>
        <radialGradient cx="48.973852%" cy="26.1291466%" fx="48.973852%" fy="26.1291466%" r="45.9301467%" gradientTransform="translate(0.489739,0.261291),scale(0.319456,1.000000),rotate(180.000000),scale(1.000000,0.609224),translate(-0.489739,-0.261291)" id="radialGradient-1">
            <stop stop-color="#B9DAE8" offset="0%"></stop>
            <stop stop-color="#165A86" stop-opacity="0" offset="100%"></stop>
        </radialGradient>
        <filter x="-8.4%" y="-26.2%" width="116.7%" height="152.3%" filterUnits="objectBoundingBox" id="filter-2">
            <feGaussianBlur stdDeviation="50" in="SourceGraphic"></feGaussianBlur>
        </filter>
    </defs>
    <g id="Page-1" stroke="none" stroke-width="1" fill="none" fill-rule="evenodd">
        <ellipse id="Oval" fill="url(#radialGradient-1)" filter="url(#filter-2)" cx="898.203125" cy="115.617188" rx="897.203125" ry="286.617188"></ellipse>
    </g>
</svg>