<?xml version="1.0" encoding="UTF-8"?>
<svg width="36px" height="36px" viewBox="0 0 36 36" version="1.1" xmlns="http://www.w3.org/2000/svg" xmlns:xlink="http://www.w3.org/1999/xlink">
    <!-- Generator: Sketch 48.1 (47250) - http://www.bohemiancoding.com/sketch -->
    <title>Page 1</title>
    <desc>Created with Sketch.</desc>
    <defs></defs>
    <g id="New-inquiry" stroke="none" stroke-width="1" fill="none" fill-rule="evenodd" transform="translate(-108.000000, -123.000000)">
        <g id="Group-3" transform="translate(108.000000, 121.000000)" fill="#000000">
            <path d="M27.55144,22.24568 C23.22432,22.24568 19.74,25.73224 19.74,30.05712 C19.74,34.38424 23.22656,37.86856 27.55144,37.86856 C31.87856,37.86856 35.36288,34.34 35.36288,30.05712 C35.36288,25.77424 31.87856,22.24568 27.55144,22.24568 L27.55144,22.24568 Z M31.79288,31.10712 L28.60144,31.10712 L28.60144,34.29856 L26.50144,34.29856 L26.50144,31.10712 L23.31,31.10712 L23.31,29.00712 L26.50144,29.00712 L26.50144,25.81568 L28.60144,25.81568 L28.60144,29.00712 L31.79288,29.00712 L31.79288,31.10712 Z M0,33.54424 L0,11.28424 C0,11.03224 0.04144,10.73712 0.16856,10.48568 C0.29512,10.23424 0.42,10.02424 0.63,9.81424 L8.19,2.54712 C8.35856,2.37856 8.61,2.21 8.82,2.12712 C9.07144,2.04424 9.32288,2 9.57656,2 L24.15,2 C26.62856,2 28.60144,3.97344 28.60144,6.452 L28.60144,20.09976 C28.30856,19.97712 27.93,19.97712 27.55144,19.97712 C27.21432,19.97712 26.88,19.97712 26.54288,20.01856 L26.54288,6.41224 C26.54288,5.1108 25.49288,4.0608 24.19144,4.0608 L10.24856,4.0608 L10.24856,7.46224 C10.24856,9.89936 8.23144,11.91424 5.79656,11.91424 L2.05856,11.91424 L2.05856,33.50224 C2.05856,34.80424 3.10856,35.85424 4.41,35.85424 L19.36144,35.85424 C19.95,36.65224 20.62144,37.36568 21.37856,37.95424 L4.45144,37.95424 C1.97288,37.99568 0,35.97856 0,33.54424 L0,33.54424 Z" id="Page-1"></path>
        </g>
    </g>
</svg>