<svg xmlns="http://www.w3.org/2000/svg" xmlns:xlink="http://www.w3.org/1999/xlink" width="42" height="42">
  <defs>
    <path id="a" d="M10.256 0h21.488c3.567 0 4.86.371 6.163 1.069a7.27 7.27 0 0 1 3.024 3.024C41.63 5.396 42 6.689 42 10.256v21.488c0 3.567-.371 4.86-1.069 6.163a7.27 7.27 0 0 1-3.024 3.024C36.604 41.63 35.311 42 31.744 42H10.256c-3.567 0-4.86-.371-6.163-1.069a7.27 7.27 0 0 1-3.024-3.024C.37 36.604 0 35.311 0 31.744V10.256c0-3.567.371-4.86 1.069-6.163a7.27 7.27 0 0 1 3.024-3.024C5.396.37 6.689 0 10.256 0zm11.072 36.094c-1.523 0-2.99-.231-4.372-.66.601-.98 1.5-2.587 1.834-3.871l.921-3.51c.482.92 1.888 1.695 3.383 1.695 4.456 0 7.664-4.095 7.664-9.184 0-4.878-3.981-8.527-9.105-8.527-6.371 0-9.756 4.276-9.756 8.935 0 2.167 1.153 4.861 2.997 5.722.279.129.428.072.495-.198l.41-1.674a.444.444 0 0 0-.104-.424c-.61-.739-1.098-2.1-1.098-3.369 0-3.258 2.466-6.408 6.667-6.408 3.626 0 6.166 2.471 6.166 6.008 0 3.994-2.017 6.76-4.642 6.76-1.45 0-2.536-1.197-2.187-2.668.417-1.756 1.224-3.65 1.224-4.917 0-1.134-.61-2.08-1.868-2.08-1.482 0-2.673 1.533-2.673 3.586 0 1.308.441 2.192.441 2.192s-1.463 6.189-1.731 7.34c-.297 1.276-.18 3.068-.052 4.235-5.489-2.15-9.38-7.494-9.38-13.749 0-8.154 6.612-14.765 14.766-14.765s14.766 6.61 14.766 14.765c0 8.154-6.612 14.766-14.766 14.766z"/>
  </defs>
  <use fill="#FFF" fill-rule="evenodd" opacity=".818" xlink:href="#a"/>
</svg>
